<?xml version="1.0" encoding="UTF-8"?>
<session version="1.0">
<refactoring comment="Rename package &apos;com.hcl.greatlearning.assign11&apos; to &apos;com.hcl.greatlearning.week12&apos;&#x0D;&#x0A;- Original project: &apos;AdminMicroservice&apos;&#x0D;&#x0A;- Original element: &apos;AdminMicroservice/src/main/java/com.hcl.greatlearning.assign11&apos;&#x0D;&#x0A;- Renamed element: &apos;AdminMicroservice/src/main/java/com.hcl.greatlearning.week12&apos;&#x0D;&#x0A;- Update references to refactored element&#x0D;&#x0A;- Update textual occurrences in comments and strings&#x0D;&#x0A;- Rename subpackages of the package" description="Rename package &apos;com.hcl.greatlearning.assign11&apos;" flags="589830" hierarchical="true" id="org.eclipse.jdt.ui.rename.package" input="/src\/main\/java=/optional=/true=/=/maven.pomderived=/true=/&lt;com.hcl.greatlearning.assign11" name="com.hcl.greatlearning.week12" qualified="false" references="true" stamp="1644303797581" textual="false" version="1.0"/>
</session>